BIOS 7323 Lab 4
…
print(tongue_km)

## Call: survfit(formula = Surv(time, delta) ~ 1, data = tongue, type = "kaplan-meier", 
##     conf.type = "log-log")
## 
##       n  events  median 0.95LCL 0.95UCL 
##      80      53      73      42     104

#  73 weeks

# What is the probability of survival at 26 weeks? 52 weeks?

surv_tab %>% filter(time>=26)

## # A tibble: 27 x 6
##     time n.risk n.event n.censor  surv std.err
##    <dbl>  <dbl>   <dbl>    <dbl> <dbl>   <dbl>
##  1    26     59       2        0 0.723  0.0503
##  2    27     57       2        0 0.697  0.0516
##  3    28     55       1        0 0.685  0.0522
##  4    30     54       3        0 0.647  0.0537
##  5    32     51       1        0 0.634  0.0541
##  6    41     50       1        0 0.621  0.0545
##  7    42     49       1        0 0.609  0.0549
##  8    51     48       1        0 0.596  0.0552
##  9    56     47       1        0 0.583  0.0554
## 10    62     45       1        1 0.570  0.0557
## # ... with 17 more rows
…
# Which estimate do you prefer? Why?

Confidence interval for quantiles

# Calculate a 95% log-log CI for the median survival time using the method in K & M Chp. 4 (p. 120-122)

p <- 0.5
surv_tab %<>% mutate(linear = (surv-(1-p))/std.err,
                     loglog = ((log(-log(surv))-log(-log(1-p)))*surv*log(surv))/std.err,
                     asin = (2*(asin(sqrt(surv))-asin(sqrt(1-p)))*sqrt(surv*(1-surv)))/std.err)

surv_tab

## # A tibble: 39 x 9
##     time n.risk n.event n.censor  surv std.err linear loglog  asin
##    <dbl>  <dbl>   <dbl>    <dbl> <dbl>   <dbl>  <dbl>  <dbl> <dbl>
##  1     1     80       2        0 0.975  0.0175  27.2    4.68 11.2 
##  2     3     78       3        0 0.938  0.0271  16.2    5.31  9.53
##  3     4     75       2        0 0.913  0.0316  13.1    5.35  8.68
##  4     5     73       2        0 0.888  0.0353  11.0    5.27  7.93
##  5     8     71       1        1 0.875  0.0370  10.1    5.20  7.59
##  6    10     69       1        0 0.862  0.0386   9.40   5.11  7.24
##  7    12     68       1        0 0.850  0.0400   8.74   5.01  6.92
##  8    13     67       3        0 0.812  0.0438   7.11   4.64  6.00
##  9    16     64       2        0 0.786  0.0460   6.22   4.35  5.43
## 10    18     62       1        0 0.774  0.0470   5.82   4.20  5.16
## # ... with 29 more rows
…
# Example 4.2 K&M p120-122
data(bmt)

p<-0.5
bmt_surv<-bmt %>% as.tibble() %>% filter(group==1) %$% Surv(t2, d3)
bmt_km<-survfit(bmt_surv~1, type="kaplan-meier",error="greenwood")
bmt_tab<-summary(bmt_km) %$% cbind(time, n.risk, n.event, n.censor, surv, std.err) %>% as.tibble()

bmt_tab %<>% mutate(linear=(surv-(1-p))/std.err,
                    loglog=((log(-log(surv))-log(-log(1-p)))*surv*log(surv))/std.err,
                    asin=(2*(asin(sqrt(surv))-asin(sqrt(1-p)))*sqrt(surv*(1-surv)))/std.err)
bmt_tab

## # A tibble: 23 x 9
##     time n.risk n.event n.censor  surv std.err linear loglog  asin
##    <dbl>  <dbl>   <dbl>    <dbl> <dbl>   <dbl>  <dbl>  <dbl> <dbl>
##  1     1     38       1        0 0.974  0.0260  18.2    3.26  7.67
##  2    55     37       1        0 0.947  0.0362  12.4    3.61  6.83
##  3    74     36       1        0 0.921  0.0437   9.63   3.69  6.17
##  4    86     35       1        0 0.895  0.0498   7.93   3.66  5.61
##  5   104     34       1        0 0.868  0.0548   6.72   3.56  5.11
##  6   107     33       1        0 0.842  0.0592   5.78   3.41  4.65
##  7   109     32       1        0 0.816  0.0629   5.02   3.24  4.21
##  8   110     31       1        0 0.789  0.0661   4.38   3.04  3.81
##  9   122     30       2        0 0.737  0.0714   3.32   2.58  3.04
## 10   129     28       1        0 0.711  0.0736   2.86   2.33  2.68
## # ... with 13 more rows
…
