BIOS 7323 Lab 7
…
# How do the results of the 4 models compare? 

# What is the relationship between the four time variables?
kt_dat %>% arrange(t1)

## # A tibble: 863 x 9
##      obs    t1    t2    t3    t4 delta gender  race   age
##    <int> <int> <dbl> <int> <dbl> <int>  <int> <int> <int>
##  1     1     1  0.75     1   0.2     0      1     1    46
##  2   525     1  0.75     1   0.2     0      2     1    41
##  3   526     2  1.5      2   0.4     1      2     1    60
##  4   527     3  2.25     3   0.6     1      2     1    18
##  5     2     5  3.75     4   1       0      1     1    51
##  6   528     5  3.75     4   1       0      2     1    41
##  7     3     7  5.25     5   1.4     1      1     1    55
##  8   529     7  5.25     5   1.4     1      2     1    37
##  9     4     9  6.75     6   1.8     0      1     1    57
## 10   530     9  6.75     6   1.8     0      2     1    71
## # ... with 853 more rows

kt_dat %>% arrange(t1) %>% mutate_at(vars(t1:t4),rank)

## # A tibble: 863 x 9
##      obs    t1    t2    t3    t4 delta gender  race   age
##    <int> <dbl> <dbl> <dbl> <dbl> <int>  <int> <int> <int>
##  1     1   1.5   1.5   1.5   1.5     0      1     1    46
##  2   525   1.5   1.5   1.5   1.5     0      2     1    41
##  3   526   3     3     3     3       1      2     1    60
##  4   527   4     4     4     4       1      2     1    18
##  5     2   5.5   5.5   5.5   5.5     0      1     1    51
##  6   528   5.5   5.5   5.5   5.5     0      2     1    41
##  7     3   7.5   7.5   7.5   7.5     1      1     1    55
##  8   529   7.5   7.5   7.5   7.5     1      2     1    37
##  9     4   9.5   9.5   9.5   9.5     0      1     1    57
## 10   530   9.5   9.5   9.5   9.5     0      2     1    71
## # ... with 853 more rows
…
